{
  "images" : [
    {
      "filename" : "football-field-or-soccer-field-background-green-grass-court-for-create-soccer-game-free-vector.jpg",
      "idiom" : "universal",
      "scale" : "1x"
    },
    {
      "filename" : "1137.jpg",
      "idiom" : "universal",
      "scale" : "2x"
    },
    {
      "idiom" : "universal",
      "scale" : "3x"
    }
  ],
  "info" : {
    "author" : "xcode",
    "version" : 1
  }
}
